{
  "project_info": {
    "project_number": "324113134415",
    "firebase_url": "https://stylo-android.firebaseio.com",
    "project_id": "stylo-android",
    "storage_bucket": "stylo-android.appspot.com"
  },
  "client": [
    {
      "client_info": {
        "mobilesdk_app_id": "1:324113134415:android:e206ff27fcb9b0cb",
        "android_client_info": {
          "package_name": "com.calpoly.stylo"
        }
      },
      "oauth_client": [
        {
          "client_id": "324113134415-2dsa26a4tks2sjmsgc2krop2c2dragfs.apps.googleusercontent.com",
          "client_type": 3
        }
      ],
      "api_key": [
        {
          "current_key": "AIzaSyDdlqOetkaOVQKCfTEedIhrlRgN0kIPpk4"
        }
      ],
      "services": {
        "analytics_service": {
          "status": 1
        },
        "appinvite_service": {
          "status": 1,
          "other_platform_oauth_client": []
        },
        "ads_service": {
          "status": 2
        }
      }
    }
  ],
  "configuration_version": "1"
}